Alaminos,43401000,3rd, ,3rd,27235,5746
Bay,43402000,2nd, ,2nd,30700,4266
City of Biñan,43403000,-,Component ,1st,132255,4350
Cabuyao City,43404000,-,Component ,2nd,112323,4330
City of Calamba,43405000,1st,Component ,2nd,223241,14950
Calauan,43406000,2nd, ,3rd,25142,6540
Cavinti,43407000,3rd, ,4th,14368,20358
Famy,43408000,5th, ,4th,10302,5306
Kalayaan,43409000,3rd, ,4th,13705,4660
Liliw,43410000,4th, ,3rd,20019,3910
Los Baños,43411000,1st, ,2nd,52868,5422
Luisiana,43412000,4th, ,4th,12125,7331
Lumban,43413000,3rd, ,4th,20045,4053
Mabitac,43414000,5th, ,4th,11177,8076
Magdalena,43415000,4th, ,4th,13108,3488
Majayjay,43416000,4th, ,4th,15183,6958
Nagcarlan,43417000,2nd, ,3rd,33056,7810
Paete,43418000,4th, ,4th,16983,5502
Pagsanjan,43419000,3rd, ,4th,22078,2636
Pakil,43420000,5th, ,4th,12047,4650
Pangil,43421000,4th, ,4th,12845,4503
Pila,43422000,3rd, ,4th,29016,3120
Rizal,43423000,5th, ,3rd,10264,2790
San Pedro,43424000,-,Component ,3rd,134486,19756
City of San Pablo,43425000,-,Component ,1st,163880,2405
Santa Cruz,43426000,1st, ,4th,59156,3859
Santa Maria,43427000,4th, ,4th,17679,10840
City of Santa Rosa,43428000,-,Component ,1st,150103,5484
Siniloan,43429000,2nd, ,4th,22828,6451
Victoria,43430000,4th, ,3rd,22443,2235
